	germplasm_name	germplasm_pedigree	germplasm_type	germplasm_par1	germplasm_par1_type	germplasm_par2	germplasm_par2_type	dnasample_sample_group	dnasample_sample_group_cycle
HB4001-01	IR BB 66		Inbred					HB	
HB4001-02	IR BB 66		Inbred					HB	
HB4001-03	IR BB 66		Inbred					HB	
IR BB 66*	IR BB 66								
HB4002-01	IRRI 154		Inbred					HB	
HB4002-02	IRRI 154		Inbred					HB	
HB4002-03	IRRI 154		Inbred					HB	
HB4081-01	IRRI 154		Inbred					HB	
HB4081-02	IRRI 154		Inbred					HB	
HB4081-03	IRRI 154		Inbred					HB	
IRRI 154*	IRRI 154								
HB4003-01	A69-1		Inbred					HB	
HB4003-02	A69-1		Inbred					HB	
HB4003-03	A69-1		Inbred					HB	
A69-1*	A69-1								
HB4004-01	KINANDANG PATONG		Inbred					HB	
HB4004-02	KINANDANG PATONG		Inbred					HB	
HB4004-03	KINANDANG PATONG		Inbred					HB	
KINANDANG PATONG*	KINANDANG PATONG								
HB4005-01	IRRI 104		Inbred					HB	
HB4005-02	IRRI 104		Inbred					HB	
HB4005-03	IRRI 104		Inbred					HB	
IRRI 104*	IRRI 104								
HB4006-01	PUSA BASMATI 1		Inbred					HB	
HB4006-02	PUSA BASMATI 1		Inbred					HB	
HB4006-03	PUSA BASMATI 1		Inbred					HB	
PUSA BASMATI 1*	PUSA BASMATI 1								
HB4007-01	CHERIVIRUPPU		Inbred					HB	
HB4007-02	CHERIVIRUPPU		Inbred					HB	
HB4007-03	CHERIVIRUPPU		Inbred					HB	
CHERIVIRUPPU*	CHERIVIRUPPU								
HB4008-01	IR14D153		Inbred					HB	
HB4008-02	IR14D153		Inbred					HB	
HB4008-03	IR14D153		Inbred					HB	
IR14D153*	IR14D153								
HB4009-01	IR14D154		Inbred					HB	
HB4009-02	IR14D154		Inbred					HB	
HB4009-03	IR14D154		Inbred					HB	
IR14D154*	IR14D154								
HB4010-01	IRRI 149 (IR64 SUB1 )		Inbred					HB	
HB4010-02	IRRI 149 (IR64 SUB1 )		Inbred					HB	
HB4010-03	IRRI 149 (IR64 SUB1 )		Inbred					HB	
IRRI 149 (IR64 SUB1 )*	IRRI 149 (IR64 SUB1 )								
HB4011-01	JASMINE 85		Inbred					HB	
HB4011-02	JASMINE 85		Inbred					HB	
HB4011-03	JASMINE 85		Inbred					HB	
JASMINE 85*	JASMINE 85								
HB4012-01	KHAO DAWK MALI 105		Inbred					HB	
HB4012-02	KHAO DAWK MALI 105		Inbred					HB	
HB4012-03	KHAO DAWK MALI 105		Inbred					HB	
KHAO DAWK MALI 105*	KHAO DAWK MALI 105								
HB4013-01	HASAWI		Inbred					HB	
HB4013-02	HASAWI		Inbred					HB	
HB4013-03	HASAWI		Inbred					HB	
HASAWI*	HASAWI								
HB4014-01	PHKA RUMDUOL		Inbred					HB	
HB4014-02	PHKA RUMDUOL		Inbred					HB	
HB4014-03	PHKA RUMDUOL		Inbred					HB	
PHKA RUMDUOL*	PHKA RUMDUOL								
HB4015-01	PHKA ROMEAT		Inbred					HB	
HB4015-02	PHKA ROMEAT		Inbred					HB	
HB4015-03	PHKA ROMEAT		Inbred					HB	
PHKA ROMEAT*	PHKA ROMEAT								
HB4016-01	POKKALI (8558)		Inbred					HB	
HB4016-02	POKKALI (8558)		Inbred					HB	
HB4016-03	POKKALI (8558)		Inbred					HB	
POKKALI (8558)*	POKKALI (8558)								
HB4017-01	SADRI 32331		Inbred					HB	
HB4017-02	SADRI 32331		Inbred					HB	
HB4017-03	SADRI 32331		Inbred					HB	
SADRI 32331*	SADRI 32331								
HB4018-01	IR 29 (SALINITY SELECTION)		Inbred					HB	
HB4018-02	IR 29 (SALINITY SELECTION)		Inbred					HB	
HB4018-03	IR 29 (SALINITY SELECTION)		Inbred					HB	
IR 29 (SALINITY SELECTION)*	IR 29 (SALINITY SELECTION)								
HB4019-01	POKKALI		Inbred					HB	
HB4019-02	POKKALI		Inbred					HB	
HB4019-03	POKKALI		Inbred					HB	
POKKALI*	POKKALI								
HB4020-01	JUMBO JET		Inbred					HB	
HB4020-02	JUMBO JET		Inbred					HB	
HB4020-03	JUMBO JET		Inbred					HB	
JUMBO JET*	JUMBO JET								
HB4021-01	SWARNA		Inbred					HB	
HB4021-02	SWARNA		Inbred					HB	
HB4021-03	SWARNA		Inbred					HB	
SWARNA*	SWARNA								
HB4022-01	BR 28		Inbred					HB	
HB4022-02	BR 28		Inbred					HB	
HB4022-03	BR 28		Inbred					HB	
BR 28*	BR 28								
HB4023-01	IR 4630-22-2-5-1-3		Inbred					HB	
HB4023-02	IR 4630-22-2-5-1-3		Inbred					HB	
HB4023-03	IR 4630-22-2-5-1-3		Inbred					HB	
IR 4630-22-2-5-1-3*	IR 4630-22-2-5-1-3								
HB4024-01	CSR 28		Inbred					HB	
HB4024-02	CSR 28		Inbred					HB	
HB4024-03	CSR 28		Inbred					HB	
CSR 28*	CSR 28								
HB4025-01	SAMBHA MAHSURI		Inbred					HB	
HB4025-02	SAMBHA MAHSURI		Inbred					HB	
HB4025-03	SAMBHA MAHSURI		Inbred					HB	
SAMBHA MAHSURI*	SAMBHA MAHSURI								
HB4026-01	IR 64		Inbred					HB	
HB4026-02	IR 64		Inbred					HB	
HB4026-03	IR 64		Inbred					HB	
HB4075-01	IR 64		Inbred					HB	
HB4075-02	IR 64		Inbred					HB	
HB4075-03	IR 64		Inbred					HB	
IR 64*	IR 64								
HB4027-01	AN SAN BO		Inbred					HB	
HB4027-02	AN SAN BO		Inbred					HB	
HB4027-03	AN SAN BO		Inbred					HB	
AN SAN BO*	AN SAN BO								
HB4028-01	PAW SAN YIN		Inbred					HB	
HB4028-02	PAW SAN YIN		Inbred					HB	
HB4028-03	PAW SAN YIN		Inbred					HB	
PAW SAN YIN*	PAW SAN YIN								
HB4029-01	TCCP 266-1-3B-13-1-3		Inbred					HB	
HB4029-02	TCCP 266-1-3B-13-1-3		Inbred					HB	
HB4029-03	TCCP 266-1-3B-13-1-3		Inbred					HB	
TCCP 266-1-3B-13-1-3*	TCCP 266-1-3B-13-1-3								
HB4030-01	TKM 9		Inbred					HB	
HB4030-02	TKM 9		Inbred					HB	
HB4030-03	TKM 9		Inbred					HB	
TKM 9*	TKM 9								
HB4031-01	IR 51485-AC 1-6		Inbred					HB	
HB4031-02	IR 51485-AC 1-6		Inbred					HB	
HB4031-03	IR 51485-AC 1-6		Inbred					HB	
IR 51485-AC 1-6*	IR 51485-AC 1-6								
HB4032-01	N 22		Inbred					HB	
HB4032-02	N 22		Inbred					HB	
HB4032-03	N 22		Inbred					HB	
N 22*	N 22								
HB4033-01	MANAW THUKHA		Inbred					HB	
HB4033-02	MANAW THUKHA		Inbred					HB	
HB4033-03	MANAW THUKHA		Inbred					HB	
MANAW THUKHA*	MANAW THUKHA								
HB4034-01	SUPA		Inbred					HB	
HB4034-02	SUPA		Inbred					HB	
HB4034-03	SUPA		Inbred					HB	
SUPA*	SUPA								
HB4035-01	IR 94391-131-152-3-B-3-1-1		Inbred					HB	
HB4035-02	IR 94391-131-152-3-B-3-1-1		Inbred					HB	
HB4035-03	IR 94391-131-152-3-B-3-1-1		Inbred					HB	
IR 94391-131-152-3-B-3-1-1*	IR 94391-131-152-3-B-3-1-1								
HB4036-01	IR 94391-131-358-19-B-6-1-4		Inbred					HB	
HB4036-02	IR 94391-131-358-19-B-6-1-4		Inbred					HB	
HB4036-03	IR 94391-131-358-19-B-6-1-4		Inbred					HB	
IR 94391-131-358-19-B-6-1-4*	IR 94391-131-358-19-B-6-1-4								
HB4037-01	IR 96321-1447-521-B-2-1-2		Inbred					HB	
HB4037-02	IR 96321-1447-521-B-2-1-2		Inbred					HB	
HB4037-03	IR 96321-1447-521-B-2-1-2		Inbred					HB	
IR 96321-1447-521-B-2-1-2*	IR 96321-1447-521-B-2-1-2								
HB4038-01	IR 96321-1447-651-B-1-1-2		Inbred					HB	
HB4038-02	IR 96321-1447-651-B-1-1-2		Inbred					HB	
HB4038-03	IR 96321-1447-651-B-1-1-2		Inbred					HB	
IR 96321-1447-651-B-1-1-2*	IR 96321-1447-651-B-1-1-2								
HB4039-01	IR 96321-558-257-B-4-1-2		Inbred					HB	
HB4039-02	IR 96321-558-257-B-4-1-2		Inbred					HB	
HB4039-03	IR 96321-558-257-B-4-1-2		Inbred					HB	
IR 96321-558-257-B-4-1-2*	IR 96321-558-257-B-4-1-2								
HB4040-01	IR 96322-34-127-B-2-1-3		Inbred					HB	
HB4040-02	IR 96322-34-127-B-2-1-3		Inbred					HB	
HB4040-03	IR 96322-34-127-B-2-1-3		Inbred					HB	
IR 96322-34-127-B-2-1-3*	IR 96322-34-127-B-2-1-3								
HB4041-01	IR05F102 (SWARNA SUB 1)		Inbred					HB	
HB4041-02	IR05F102 (SWARNA SUB 1)		Inbred					HB	
HB4041-03	IR05F102 (SWARNA SUB 1)		Inbred					HB	
IR05F102 (SWARNA SUB 1)*	IR05F102 (SWARNA SUB 1)								
HB4042-01	OM 4900		Inbred					HB	
HB4042-02	OM 4900		Inbred					HB	
HB4042-03	OM 4900		Inbred					HB	
OM 4900*	OM 4900								
HB4043-01	IRBLKH-K3[CO]		Inbred					HB	
HB4043-02	IRBLKH-K3[CO]		Inbred					HB	
HB4043-03	IRBLKH-K3[CO]		Inbred					HB	
IRBLKH-K3[CO]*	IRBLKH-K3[CO]								
HB4044-01	IRBLTA YA[CO]		Inbred					HB	
HB4044-02	IRBLTA YA[CO]		Inbred					HB	
HB4044-03	IRBLTA YA[CO]		Inbred					HB	
IRBLTA YA[CO]*	IRBLTA YA[CO]								
HB4045-01	IRBLZ5-CA[CO]		Inbred					HB	
HB4045-02	IRBLZ5-CA[CO]		Inbred					HB	
HB4045-03	IRBLZ5-CA[CO]		Inbred					HB	
IRBLZ5-CA[CO]*	IRBLZ5-CA[CO]								
HB4046-01	IRBLSH-B[CO]		Inbred					HB	
HB4046-02	IRBLSH-B[CO]		Inbred					HB	
HB4046-03	IRBLSH-B[CO]		Inbred					HB	
IRBLSH-B[CO]*	IRBLSH-B[CO]								
HB4047-01	SADRI 32329 		Inbred					HB	
HB4047-02	SADRI 32329 		Inbred					HB	
HB4047-03	SADRI 32329 		Inbred					HB	
SADRI 32329 *	SADRI 32329 								
HB4048-01	FL478		Inbred					HB	
HB4048-02	FL478		Inbred					HB	
HB4048-03	FL478		Inbred					HB	
FL478*	FL478								
HB4049-01	IR83383-B-B-129-4		Inbred					HB	
HB4049-02	IR83383-B-B-129-4		Inbred					HB	
HB4049-03	IR83383-B-B-129-4		Inbred					HB	
IR83383-B-B-129-4*	IR83383-B-B-129-4								
HB4050-01	IR74371-70-1-1		Inbred					HB	
HB4050-02	IR74371-70-1-1		Inbred					HB	
HB4050-03	IR74371-70-1-1		Inbred					HB	
IR74371-70-1-1*	IR74371-70-1-1								
HB4051-01	DULAR		Inbred					HB	
HB4051-02	DULAR		Inbred					HB	
HB4051-03	DULAR		Inbred					HB	
DULAR*	DULAR								
HB4052-01	SAN DU BAI MI HONG GU		Inbred					HB	
HB4052-02	SAN DU BAI MI HONG GU		Inbred					HB	
HB4052-03	SAN DU BAI MI HONG GU		Inbred					HB	
SAN DU BAI MI HONG GU*	SAN DU BAI MI HONG GU								
HB4053-01	TCHAMPA		Inbred					HB	
HB4053-02	TCHAMPA		Inbred					HB	
HB4053-03	TCHAMPA		Inbred					HB	
TCHAMPA*	TCHAMPA								
HB4054-01	OM 4218		Inbred					HB	
HB4054-02	OM 4218		Inbred					HB	
HB4054-03	OM 4218		Inbred					HB	
OM 4218*	OM 4218								
HB4055-01	ANGELICA  OR IRRI 141		Inbred					HB	
HB4055-02	ANGELICA  OR IRRI 141		Inbred					HB	
HB4055-03	ANGELICA  OR IRRI 141		Inbred					HB	
ANGELICA  OR IRRI 141*	ANGELICA  OR IRRI 141								
HB4056-01	IR77674-3B-B-2-2-8		Inbred					HB	
HB4056-02	IR77674-3B-B-2-2-8		Inbred					HB	
HB4056-03	IR77674-3B-B-2-2-8		Inbred					HB	
IR77674-3B-B-2-2-8*	IR77674-3B-B-2-2-8								
HB4057-01	DZ78 (male)		Inbred					HB	
HB4057-02	DZ78 (male)		Inbred					HB	
HB4057-03	DZ78 (male)		Inbred					HB	
DZ78 (male)*	DZ78 (male)								
HB4058-01	Aus 257 (female)		Inbred					HB	
HB4058-02	Aus 257 (female)		Inbred					HB	
HB4058-03	Aus 257 (female)		Inbred					HB	
Aus 257 (female)*	Aus 257 (female)								
HB4059-01	Santhi Sufaid 207 (male)		Inbred					HB	
HB4059-02	Santhi Sufaid 207 (male)		Inbred					HB	
HB4059-03	Santhi Sufaid 207 (male)		Inbred					HB	
Santhi Sufaid 207 (male)*	Santhi Sufaid 207 (male)								
HB4060-01	Dular (female)		Inbred					HB	
HB4060-02	Dular (female)		Inbred					HB	
HB4060-03	Dular (female)		Inbred					HB	
Dular (female)*	Dular (female)								
HB4061-01	Gul Murali (male)		Inbred					HB	
HB4061-02	Gul Murali (male)		Inbred					HB	
HB4061-03	Gul Murali (male)		Inbred					HB	
Gul Murali (male)*	Gul Murali (male)								
HB4062-01	Camponi Sml (female)		Inbred					HB	
HB4062-02	Camponi Sml (female)		Inbred					HB	
HB4062-03	Camponi Sml (female)		Inbred					HB	
Camponi Sml (female)*	Camponi Sml (female)								
HB4063-01	E ZI 124 (male)		Inbred					HB	
HB4063-02	E ZI 124 (male)		Inbred					HB	
HB4063-03	E ZI 124 (male)		Inbred					HB	
E ZI 124 (male)*	E ZI 124 (male)								
HB4064-01	WANNI DAHANALA (female)		Inbred					HB	
HB4064-02	WANNI DAHANALA (female)		Inbred					HB	
HB4064-03	WANNI DAHANALA (female)		Inbred					HB	
WANNI DAHANALA (female)*	WANNI DAHANALA (female)								
HB4065-01	IRBLks-Co[Co] k24 IR85423 Piks		Inbred					HB	
HB4065-02	IRBLks-Co[Co] k24 IR85423 Piks		Inbred					HB	
HB4065-03	IRBLks-Co[Co] k24 IR85423 Piks		Inbred					HB	
IRBLks-Co[Co] k24 IR85423 Piks*	IRBLks-Co[Co] k24 IR85423 Piks								
HB4066-01	IRBLkp-K60[Co] k29 IR85422 Pik-p		Inbred					HB	
HB4066-02	IRBLkp-K60[Co] k29 IR85422 Pik-p		Inbred					HB	
HB4066-03	IRBLkp-K60[Co] k29 IR85422 Pik-p		Inbred					HB	
IRBLkp-K60[Co] k29 IR85422 Pik-p*	IRBLkp-K60[Co] k29 IR85422 Pik-p								
HB4067-01	IRBLz-Fu IRBL9 		Inbred					HB	
HB4067-02	IRBLz-Fu IRBL9 		Inbred					HB	
HB4067-03	IRBLz-Fu IRBL9 		Inbred					HB	
IRBLz-Fu IRBL9 *	IRBLz-Fu IRBL9 								
HB4068-01	IRBKkh-k3[Co] K27 IR85418 Pik-h		Inbred					HB	
HB4068-02	IRBKkh-k3[Co] K27 IR85418 Pik-h		Inbred					HB	
HB4068-03	IRBKkh-k3[Co] K27 IR85418 Pik-h		Inbred					HB	
IRBKkh-k3[Co] K27 IR85418 Pik-h*	IRBKkh-k3[Co] K27 IR85418 Pik-h								
HB4069-01	IRBLta-Ya[Co] K35 IR85426 Pita		Inbred					HB	
HB4069-02	IRBLta-Ya[Co] K35 IR85426 Pita		Inbred					HB	
HB4069-03	IRBLta-Ya[Co] K35 IR85426 Pita		Inbred					HB	
IRBLta-Ya[Co] K35 IR85426 Pita*	IRBLta-Ya[Co] K35 IR85426 Pita								
HB4070-01	FR13A		Inbred					HB	
HB4070-02	FR13A		Inbred					HB	
HB4070-03	FR13A		Inbred					HB	
FR13A*	FR13A								
HB4071-01	IRRI 119		Inbred					HB	
HB4071-02	IRRI 119		Inbred					HB	
HB4071-03	IRRI 119		Inbred					HB	
IRRI 119*	IRRI 119								
HB4072-01	GARURA::IRGC 64111-1		Inbred					HB	
HB4072-02	GARURA::IRGC 64111-1		Inbred					HB	
HB4072-03	GARURA::IRGC 64111-1		Inbred					HB	
GARURA::IRGC 64111-1*	GARURA::IRGC 64111-1								
HB4074-01	ASHI BINNI::IRGC 77216-1		Inbred					HB	
HB4074-02	ASHI BINNI::IRGC 77216-1		Inbred					HB	
HB4074-03	ASHI BINNI::IRGC 77216-1		Inbred					HB	
ASHI BINNI::IRGC 77216-1*	ASHI BINNI::IRGC 77216-1								
HB4076-01	IR04A428		Inbred					HB	
HB4076-02	IR04A428		Inbred					HB	
HB4076-03	IR04A428		Inbred					HB	
IR04A428*	IR04A428								
HB4077-01	IR16A1957		Inbred					HB	
HB4077-02	IR16A1957		Inbred					HB	
HB4077-03	IR16A1957		Inbred					HB	
IR16A1957*	IR16A1957								
HB4078-01	IR04A115		Inbred					HB	
HB4078-02	IR04A115		Inbred					HB	
HB4078-03	IR04A115		Inbred					HB	
IR04A115*	IR04A115								
HB4079-01	IR01W105		Inbred					HB	
HB4079-02	IR01W105		Inbred					HB	
HB4079-03	IR01W105		Inbred					HB	
IR01W105*	IR01W105								
HB4080-01	IR105469:72-18-2		Inbred					HB	
HB4080-02	IR105469:72-18-2		Inbred					HB	
HB4080-03	IR105469:72-18-2		Inbred					HB	
IR105469:72-18-2*	IR105469:72-18-2								
HB4082-01	IR13N102		Inbred					HB	
HB4082-02	IR13N102		Inbred					HB	
HB4082-03	IR13N102		Inbred					HB	
IR13N102*	IR13N102								
HB4083-01	IR100842-B-B RGA-B RGA-B RGA-9		Inbred					HB	
HB4083-02	IR100842-B-B RGA-B RGA-B RGA-9		Inbred					HB	
HB4083-03	IR100842-B-B RGA-B RGA-B RGA-9		Inbred					HB	
IR100842-B-B RGA-B RGA-B RGA-9*	IR100842-B-B RGA-B RGA-B RGA-9								
HB4085-01	PR44420-36-4-3		Inbred					HB	
HB4085-02	PR44420-36-4-3		Inbred					HB	
HB4085-03	PR44420-36-4-3		Inbred					HB	
PR44420-36-4-3*	PR44420-36-4-3								
HB4086-01	IR105479:64-2		Inbred					HB	
HB4086-02	IR105479:64-2		Inbred					HB	
HB4086-03	IR105479:64-2		Inbred					HB	
IR105479:64-2*	IR105479:64-2								
HB4087-01	IR09A228		Inbred					HB	
HB4087-02	IR09A228		Inbred					HB	
HB4087-03	IR09A228		Inbred					HB	
IR09A228*	IR09A228								
HB4088-01	IR103294-B-B-B-B-7		Inbred					HB	
HB4088-02	IR103294-B-B-B-B-7		Inbred					HB	
HB4088-03	IR103294-B-B-B-B-7		Inbred					HB	
IR103294-B-B-B-B-7*	IR103294-B-B-B-B-7								
HB4090-01	IR14A216		Inbred					HB	
HB4090-02	IR14A216		Inbred					HB	
HB4090-03	IR14A216		Inbred					HB	
IR14A216*	IR14A216								
HB4091-01	PR37464-31-3-2-2-2-3-1-B-5-1-1		Inbred					HB	
HB4091-02	PR37464-31-3-2-2-2-3-1-B-5-1-1		Inbred					HB	
HB4091-03	PR37464-31-3-2-2-2-3-1-B-5-1-1		Inbred					HB	
PR37464-31-3-2-2-2-3-1-B-5-1-1*	PR37464-31-3-2-2-2-3-1-B-5-1-1								
HB4092-01	IR108005-B-B RGA-B RGA-1		Inbred					HB	
HB4092-02	IR108005-B-B RGA-B RGA-1		Inbred					HB	
HB4092-03	IR108005-B-B RGA-B RGA-1		Inbred					HB	
IR108005-B-B RGA-B RGA-1*	IR108005-B-B RGA-B RGA-1								
HB4093-01	IR93339:29-B-7-7-B-B		Inbred					HB	
HB4093-02	IR93339:29-B-7-7-B-B		Inbred					HB	
HB4093-03	IR93339:29-B-7-7-B-B		Inbred					HB	
IR93339:29-B-7-7-B-B*	IR93339:29-B-7-7-B-B								
HB4094-01	IR12A329		Inbred					HB	
HB4094-02	IR12A329		Inbred					HB	
HB4094-03	IR12A329		Inbred					HB	
IR12A329*	IR12A329								
HB4095-01	IR12N231		Inbred					HB	
HB4095-02	IR12N231		Inbred					HB	
HB4095-03	IR12N231		Inbred					HB	
IR12N231*	IR12N231								
HB4096-01	IR10F559		Inbred					HB	
HB4096-02	IR10F559		Inbred					HB	
HB4096-03	IR10F559		Inbred					HB	
IR10F559*	IR10F559								
HB4098-01	IR13N152		Inbred					HB	
HB4098-02	IR13N152		Inbred					HB	
HB4098-03	IR13N152		Inbred					HB	
IR13N152*	IR13N152								
HB4099-01	IRRI 156		Inbred					HB	
HB4099-02	IRRI 156		Inbred					HB	
HB4099-03	IRRI 156		Inbred					HB	
IRRI 156*	IRRI 156								
HB4100-01	IR12A173		Inbred					HB	
HB4100-02	IR12A173		Inbred					HB	
HB4100-03	IR12A173		Inbred					HB	
IR12A173*	IR12A173								
HB4102-01	PR44522-15-5-2-B		Inbred					HB	
HB4102-02	PR44522-15-5-2-B		Inbred					HB	
HB4102-03	PR44522-15-5-2-B		Inbred					HB	
PR44522-15-5-2-B*	PR44522-15-5-2-B								
HB4103-01	IR10N134		Inbred					HB	
HB4103-02	IR10N134		Inbred					HB	
HB4103-03	IR10N134		Inbred					HB	
IR10N134*	IR10N134								
HB4104-01	IR05N341		Inbred					HB	
HB4104-02	IR05N341		Inbred					HB	
HB4104-03	IR05N341		Inbred					HB	
IR05N341*	IR05N341								
HB4105-01	IR13N115		Inbred					HB	
HB4105-02	IR13N115		Inbred					HB	
HB4105-03	IR13N115		Inbred					HB	
IR13N115*	IR13N115								
HB4106-01	IR12A282		Inbred					HB	
HB4106-02	IR12A282		Inbred					HB	
HB4106-03	IR12A282		Inbred					HB	
IR12A282*	IR12A282								
HB4108-01	IR10A231		Inbred					HB	
HB4108-02	IR10A231		Inbred					HB	
HB4108-03	IR10A231		Inbred					HB	
IR10A231*	IR10A231								
HB4109-01	IR09N516		Inbred					HB	
HB4109-02	IR09N516		Inbred					HB	
HB4109-03	IR09N516		Inbred					HB	
IR09N516*	IR09N516								
HB4110-01	IR12N165		Inbred					HB	
HB4110-02	IR12N165		Inbred					HB	
HB4110-03	IR12N165		Inbred					HB	
IR12N165*	IR12N165								
HB4113-01	IR14A185		Inbred					HB	
HB4113-02	IR14A185		Inbred					HB	
HB4113-03	IR14A185		Inbred					HB	
IR14A185*	IR14A185								
HB4114-01	IR14A150		Inbred					HB	
HB4114-02	IR14A150		Inbred					HB	
HB4114-03	IR14A150		Inbred					HB	
IR14A150*	IR14A150								
HB4117-01	IR11A282		Inbred					HB	
HB4117-02	IR11A282		Inbred					HB	
HB4117-03	IR11A282		Inbred					HB	
IR11A282*	IR11A282								
HB4118-01	IR11N202		Inbred					HB	
HB4118-02	IR11N202		Inbred					HB	
HB4118-03	IR11N202		Inbred					HB	
IR11N202*	IR11N202								
HB4119-01	PR 42071-14-2-2-2		Inbred					HB	
HB4119-02	PR 42071-14-2-2-2		Inbred					HB	
HB4119-03	PR 42071-14-2-2-2		Inbred					HB	
PR 42071-14-2-2-2*	PR 42071-14-2-2-2								
HB4120-01	IR100097-B-B RGA-B RGA-8		Inbred					HB	
HB4120-02	IR100097-B-B RGA-B RGA-8		Inbred					HB	
HB4120-03	IR100097-B-B RGA-B RGA-8		Inbred					HB	
IR100097-B-B RGA-B RGA-8*	IR100097-B-B RGA-B RGA-8								
HB4121-01	IR12N135		Inbred					HB	
HB4121-02	IR12N135		Inbred					HB	
HB4121-03	IR12N135		Inbred					HB	
IR12N135*	IR12N135								
HB4123-01	IR93339:39-B-6-5-B-B		Inbred					HB	
HB4123-02	IR93339:39-B-6-5-B-B		Inbred					HB	
HB4123-03	IR93339:39-B-6-5-B-B		Inbred					HB	
IR93339:39-B-6-5-B-B*	IR93339:39-B-6-5-B-B								
HB4125-01	IR09A235		Inbred					HB	
HB4125-02	IR09A235		Inbred					HB	
HB4125-03	IR09A235		Inbred					HB	
IR09A235*	IR09A235								
HB4127-01	IR107057:25-1-1		Inbred					HB	
HB4127-02	IR107057:25-1-1		Inbred					HB	
HB4127-03	IR107057:25-1-1		Inbred					HB	
IR107057:25-1-1*	IR107057:25-1-1								
HB4128-01	PIR-26>C0-2071-1-4-2-1		Inbred					HB	
HB4128-02	PIR-26>C0-2071-1-4-2-1		Inbred					HB	
HB4128-03	PIR-26>C0-2071-1-4-2-1		Inbred					HB	
PIR-26>C0-2071-1-4-2-1*	PIR-26>C0-2071-1-4-2-1								
HB4129-01	IR103728-B-B-B-B-1		Inbred					HB	
HB4129-02	IR103728-B-B-B-B-1		Inbred					HB	
HB4129-03	IR103728-B-B-B-B-1		Inbred					HB	
IR103728-B-B-B-B-1*	IR103728-B-B-B-B-1								
HB4130-01	IR13N134		Inbred					HB	
HB4130-02	IR13N134		Inbred					HB	
HB4130-03	IR13N134		Inbred					HB	
IR13N134*	IR13N134								
HB4131-01	PR 40778-5-2-2-3-B		Inbred					HB	
HB4131-02	PR 40778-5-2-2-3-B		Inbred					HB	
HB4131-03	PR 40778-5-2-2-3-B		Inbred					HB	
PR 40778-5-2-2-3-B*	PR 40778-5-2-2-3-B								
HB4133-01	IR12A136		Inbred					HB	
HB4133-02	IR12A136		Inbred					HB	
HB4133-03	IR12A136		Inbred					HB	
IR12A136*	IR12A136								
HB4134-01	IR09A130		Inbred					HB	
HB4134-02	IR09A130		Inbred					HB	
HB4134-03	IR09A130		Inbred					HB	
IR09A130*	IR09A130								
HB4136-01	IR99982-B-B-B-B-1		Inbred					HB	
HB4136-02	IR99982-B-B-B-B-1		Inbred					HB	
HB4136-03	IR99982-B-B-B-B-1		Inbred					HB	
IR99982-B-B-B-B-1*	IR99982-B-B-B-B-1								
HB4137-01	IR99047-B-B-B-B-47		Inbred					HB	
HB4137-02	IR99047-B-B-B-B-47		Inbred					HB	
HB4137-03	IR99047-B-B-B-B-47		Inbred					HB	
IR99047-B-B-B-B-47*	IR99047-B-B-B-B-47								
HB4139-01	IR10N271		Inbred					HB	
HB4139-02	IR10N271		Inbred					HB	
HB4139-03	IR10N271		Inbred					HB	
IR10N271*	IR10N271								
HB4140-01	IR99054-B-B-1		Inbred					HB	
HB4140-02	IR99054-B-B-1		Inbred					HB	
HB4140-03	IR99054-B-B-1		Inbred					HB	
IR99054-B-B-1*	IR99054-B-B-1								
HB4143-01	PR 37541-43-3-2-2-2-1-2-3-B-3-1-1		Inbred					HB	
HB4143-02	PR 37541-43-3-2-2-2-1-2-3-B-3-1-1		Inbred					HB	
HB4143-03	PR 37541-43-3-2-2-2-1-2-3-B-3-1-1		Inbred					HB	
PR 37541-43-3-2-2-2-1-2-3-B-3-1-1*	PR 37541-43-3-2-2-2-1-2-3-B-3-1-1								
HB4145-01	IR13N157		Inbred					HB	
HB4145-02	IR13N157		Inbred					HB	
HB4145-03	IR13N157		Inbred					HB	
IR13N157*	IR13N157								
HB4146-01	PR44517-10-2-1-B		Inbred					HB	
HB4146-02	PR44517-10-2-1-B		Inbred					HB	
HB4146-03	PR44517-10-2-1-B		Inbred					HB	
PR44517-10-2-1-B*	PR44517-10-2-1-B								
HB4147-01	IR10N230		Inbred					HB	
HB4147-02	IR10N230		Inbred					HB	
HB4147-03	IR10N230		Inbred					HB	
IR10N230*	IR10N230								
HB4148-01	IR13N131		Inbred					HB	
HB4148-02	IR13N131		Inbred					HB	
HB4148-03	IR13N131		Inbred					HB	
IR13N131*	IR13N131								
HB4149-01	IR13A107		Inbred					HB	
HB4149-02	IR13A107		Inbred					HB	
HB4149-03	IR13A107		Inbred					HB	
IR13A107*	IR13A107								
HB4151-01	IR11A297		Inbred					HB	
HB4151-02	IR11A297		Inbred					HB	
HB4151-03	IR11A297		Inbred					HB	
IR11A297*	IR11A297								
HB4153-01	IR110615-C1-B-B-B-1-1		Inbred					HB	
HB4153-02	IR110615-C1-B-B-B-1-1		Inbred					HB	
HB4153-03	IR110615-C1-B-B-B-1-1		Inbred					HB	
IR110615-C1-B-B-B-1-1*	IR110615-C1-B-B-B-1-1								
HB4154-01	IR93346:1-B-13-7-6-1RGA-2RGA-1-B		Inbred					HB	
HB4154-02	IR93346:1-B-13-7-6-1RGA-2RGA-1-B		Inbred					HB	
HB4154-03	IR93346:1-B-13-7-6-1RGA-2RGA-1-B		Inbred					HB	
IR93346:1-B-13-7-6-1RGA-2RGA-1-B*	IR93346:1-B-13-7-6-1RGA-2RGA-1-B								
HB4156-01	IR99993-B-B RGA-B RGA-B RGA-1		Inbred					HB	
HB4156-02	IR99993-B-B RGA-B RGA-B RGA-1		Inbred					HB	
HB4156-03	IR99993-B-B RGA-B RGA-B RGA-1		Inbred					HB	
IR99993-B-B RGA-B RGA-B RGA-1*	IR99993-B-B RGA-B RGA-B RGA-1								
HB4157-01	IR13A153		Inbred					HB	
HB4157-02	IR13A153		Inbred					HB	
HB4157-03	IR13A153		Inbred					HB	
IR13A153*	IR13A153								
HB4158-01	IR04A429		Inbred					HB	
HB4158-02	IR04A429		Inbred					HB	
HB4158-03	IR04A429		Inbred					HB	
IR04A429*	IR04A429								
HB4159-01	IR100120-B-B-B-B-11		Inbred					HB	
HB4159-02	IR100120-B-B-B-B-11		Inbred					HB	
HB4159-03	IR100120-B-B-B-B-11		Inbred					HB	
IR100120-B-B-B-B-11*	IR100120-B-B-B-B-11								
HB4160-01	IR12N249		Inbred					HB	
HB4160-02	IR12N249		Inbred					HB	
HB4160-03	IR12N249		Inbred					HB	
IR12N249*	IR12N249								
HB4161-01	IR11N121		Inbred					HB	
HB4161-02	IR11N121		Inbred					HB	
HB4161-03	IR11N121		Inbred					HB	
IR11N121*	IR11N121								
HB4162-01	IR11A341		Inbred					HB	
HB4162-02	IR11A341		Inbred					HB	
HB4162-03	IR11A341		Inbred					HB	
IR11A341*	IR11A341								
HB4163-01	IR12A229		Inbred					HB	
HB4163-02	IR12A229		Inbred					HB	
HB4163-03	IR12A229		Inbred					HB	
IR12A229*	IR12A229								
HB4165-01	IR09M120		Inbred					HB	
HB4165-02	IR09M120		Inbred					HB	
HB4165-03	IR09M120		Inbred					HB	
IR09M120*	IR09M120								
HB4166-01	IR54447-3B-10-2		Inbred					HB	
HB4166-02	IR54447-3B-10-2		Inbred					HB	
HB4166-03	IR54447-3B-10-2		Inbred					HB	
IR54447-3B-10-2*	IR54447-3B-10-2								
HB4167-01	PADMASAIL		Inbred					HB	
HB4167-02	PADMASAIL		Inbred					HB	
HB4167-03	PADMASAIL		Inbred					HB	
PADMASAIL*	PADMASAIL								
HB4168-01	CODE NO 10183::IRGC 45374-1		Inbred					HB	
HB4168-02	CODE NO 10183::IRGC 45374-1		Inbred					HB	
HB4168-03	CODE NO 10183::IRGC 45374-1		Inbred					HB	
CODE NO 10183::IRGC 45374-1*	CODE NO 10183::IRGC 45374-1								
HB4169-01	UCP 32		Inbred					HB	
HB4169-02	UCP 32		Inbred					HB	
HB4169-03	UCP 32		Inbred					HB	
UCP 32*	UCP 32								
HB4170-01	IR15M1289		Inbred					HB	
HB4170-02	IR15M1289		Inbred					HB	
HB4170-03	IR15M1289		Inbred					HB	
IR15M1289*	IR15M1289								
HB4171-01	GHEROT KOLA		Inbred					HB	
HB4171-02	GHEROT KOLA		Inbred					HB	
HB4171-03	GHEROT KOLA		Inbred					HB	
GHEROT KOLA*	GHEROT KOLA								
HB4172-01	AUS 257::IRGC 29049-1		Inbred					HB	
HB4172-02	AUS 257::IRGC 29049-1		Inbred					HB	
HB4172-03	AUS 257::IRGC 29049-1		Inbred					HB	
AUS 257::IRGC 29049-1*	AUS 257::IRGC 29049-1								
HB4173-01	DM 43		Inbred					HB	
HB4173-02	DM 43		Inbred					HB	
HB4173-03	DM 43		Inbred					HB	
DM 43*	DM 43								
HB4174-01	RANI BHOG::IRGC 35109-1		Inbred					HB	
HB4174-02	RANI BHOG::IRGC 35109-1		Inbred					HB	
HB4174-03	RANI BHOG::IRGC 35109-1		Inbred					HB	
RANI BHOG::IRGC 35109-1*	RANI BHOG::IRGC 35109-1								
HB4175-01	IR10M210		Inbred					HB	
HB4175-02	IR10M210		Inbred					HB	
HB4175-03	IR10M210		Inbred					HB	
IR10M210*	IR10M210								
HB4176-01	ARC 14901::IRGC 41811-1		Inbred					HB	
HB4176-02	ARC 14901::IRGC 41811-1		Inbred					HB	
HB4176-03	ARC 14901::IRGC 41811-1		Inbred					HB	
ARC 14901::IRGC 41811-1*	ARC 14901::IRGC 41811-1								
HB4177-01	CHUNGUR BALI::IRGC 25855-1		Inbred					HB	
HB4177-02	CHUNGUR BALI::IRGC 25855-1		Inbred					HB	
HB4177-03	CHUNGUR BALI::IRGC 25855-1		Inbred					HB	
CHUNGUR BALI::IRGC 25855-1*	CHUNGUR BALI::IRGC 25855-1								
HB4178-01	DV 86::IRGC 8840-1		Inbred					HB	
HB4178-02	DV 86::IRGC 8840-1		Inbred					HB	
HB4178-03	DV 86::IRGC 8840-1		Inbred					HB	
DV 86::IRGC 8840-1*	DV 86::IRGC 8840-1								
HB4179-01	BONGEZA::IRGC 53483-1		Inbred					HB	
HB4179-02	BONGEZA::IRGC 53483-1		Inbred					HB	
HB4179-03	BONGEZA::IRGC 53483-1		Inbred					HB	
BONGEZA::IRGC 53483-1*	BONGEZA::IRGC 53483-1								
HB4180-01	CHANDARHAT::IRGC 25845-1		Inbred					HB	
HB4180-02	CHANDARHAT::IRGC 25845-1		Inbred					HB	
HB4180-03	CHANDARHAT::IRGC 25845-1		Inbred					HB	
CHANDARHAT::IRGC 25845-1*	CHANDARHAT::IRGC 25845-1								
HB4181-01	SHITTA AMAN::IRGC 37596-1		Inbred					HB	
HB4181-02	SHITTA AMAN::IRGC 37596-1		Inbred					HB	
HB4181-03	SHITTA AMAN::IRGC 37596-1		Inbred					HB	
SHITTA AMAN::IRGC 37596-1*	SHITTA AMAN::IRGC 37596-1								
HB4182-01	PORANG::IRGC 27577-1		Inbred					HB	
HB4182-02	PORANG::IRGC 27577-1		Inbred					HB	
HB4182-03	PORANG::IRGC 27577-1		Inbred					HB	
PORANG::IRGC 27577-1*	PORANG::IRGC 27577-1								
HB4183-01	AUS 295::IRGC 29083-1		Inbred					HB	
HB4183-02	AUS 295::IRGC 29083-1		Inbred					HB	
HB4183-03	AUS 295::IRGC 29083-1		Inbred					HB	
AUS 295::IRGC 29083-1*	AUS 295::IRGC 29083-1								
HB4184-01	AUS JHARI::IRGC 25833-1		Inbred					HB	
HB4184-02	AUS JHARI::IRGC 25833-1		Inbred					HB	
HB4184-03	AUS JHARI::IRGC 25833-1		Inbred					HB	
AUS JHARI::IRGC 25833-1*	AUS JHARI::IRGC 25833-1								
HB4185-01	KALUBALA VEE		Inbred					HB	
HB4185-02	KALUBALA VEE		Inbred					HB	
HB4185-03	KALUBALA VEE		Inbred					HB	
KALUBALA VEE*	KALUBALA VEE								
HB4186-01	KOALARETA::IRGC 28598-1		Inbred					HB	
HB4186-02	KOALARETA::IRGC 28598-1		Inbred					HB	
HB4186-03	KOALARETA::IRGC 28598-1		Inbred					HB	
KOALARETA::IRGC 28598-1*	KOALARETA::IRGC 28598-1								
HB4187-01	IR05N359		Inbred					HB	
HB4187-02	IR05N359		Inbred					HB	
HB4187-03	IR05N359		Inbred					HB	
IR05N359*	IR05N359								
HB4188-01	IR03A568		Inbred					HB	
HB4188-02	IR03A568		Inbred					HB	
HB4188-03	IR03A568		Inbred					HB	
IR03A568*	IR03A568								
HB4189-01	IR122310:7-2-2		Inbred					HB	
HB4189-02	IR122310:7-2-2		Inbred					HB	
HB4189-03	IR122310:7-2-2		Inbred					HB	
IR122310:7-2-2*	IR122310:7-2-2								
HB4190-01	IR14F711		Inbred					HB	
HB4190-02	IR14F711		Inbred					HB	
HB4190-03	IR14F711		Inbred					HB	
IR14F711*	IR14F711								
HB4191-01	IR15A1103		Inbred					HB	
HB4191-02	IR15A1103		Inbred					HB	
HB4191-03	IR15A1103		Inbred					HB	
IR15A1103*	IR15A1103								
HB4192-01	IR107051:15-1-1		Inbred					HB	
HB4192-02	IR107051:15-1-1		Inbred					HB	
HB4192-03	IR107051:15-1-1		Inbred					HB	
IR107051:15-1-1*	IR107051:15-1-1								
HB4193-01	IR14F703		Inbred					HB	
HB4193-02	IR14F703		Inbred					HB	
HB4193-03	IR14F703		Inbred					HB	
IR14F703*	IR14F703								
HB4194-01	IR14F717		Inbred					HB	
HB4194-02	IR14F717		Inbred					HB	
HB4194-03	IR14F717		Inbred					HB	
IR14F717*	IR14F717								
HB4195-01	IR14F697		Inbred					HB	
HB4195-02	IR14F697		Inbred					HB	
HB4195-03	IR14F697		Inbred					HB	
IR14F697*	IR14F697								
HB4196-01	IR14F713		Inbred					HB	
HB4196-02	IR14F713		Inbred					HB	
HB4196-03	IR14F713		Inbred					HB	
IR14F713*	IR14F713								
HB4197-01	IR115838:5-5-5		Inbred					HB	
HB4197-02	IR115838:5-5-5		Inbred					HB	
HB4197-03	IR115838:5-5-5		Inbred					HB	
IR115838:5-5-5*	IR115838:5-5-5								
HB4198-01	IR107057:2-1-1		Inbred					HB	
HB4198-02	IR107057:2-1-1		Inbred					HB	
HB4198-03	IR107057:2-1-1		Inbred					HB	
IR107057:2-1-1*	IR107057:2-1-1								
HB4199-01	IR15A1410		Inbred					HB	
HB4199-02	IR15A1410		Inbred					HB	
HB4199-03	IR15A1410		Inbred					HB	
IR15A1410*	IR15A1410								
HB4200-01	IR06A150		Inbred					HB	
HB4200-02	IR06A150		Inbred					HB	
HB4200-03	IR06A150		Inbred					HB	
IR06A150*	IR06A150								
HB4201-01	IR122310:7-5-6		Inbred					HB	
HB4201-02	IR122310:7-5-6		Inbred					HB	
HB4201-03	IR122310:7-5-6		Inbred					HB	
IR122310:7-5-6*	IR122310:7-5-6								
HB4202-01	IR13N143		Inbred					HB	
HB4202-02	IR13N143		Inbred					HB	
HB4202-03	IR13N143		Inbred					HB	
IR13N143*	IR13N143								
HB4203-01	IR14F690		Inbred					HB	
HB4203-02	IR14F690		Inbred					HB	
HB4203-03	IR14F690		Inbred					HB	
IR14F690*	IR14F690								
HB4204-01	IR107061:1-1-1		Inbred					HB	
HB4204-02	IR107061:1-1-1		Inbred					HB	
HB4204-03	IR107061:1-1-1		Inbred					HB	
IR107061:1-1-1*	IR107061:1-1-1								
HB4205-01	IRRI 123		Inbred					HB	
HB4205-02	IRRI 123		Inbred					HB	
HB4205-03	IRRI 123		Inbred					HB	
IRRI 123*	IRRI 123								
HB4206-01	IR14F707		Inbred					HB	
HB4206-02	IR14F707		Inbred					HB	
HB4206-03	IR14F707		Inbred					HB	
IR14F707*	IR14F707								
HB4207-01	IR115838:6-6-2		Inbred					HB	
HB4207-02	IR115838:6-6-2		Inbred					HB	
HB4207-03	IR115838:6-6-2		Inbred					HB	
IR115838:6-6-2*	IR115838:6-6-2								
HB4208-01	IRRI 174		Inbred					HB	
HB4208-02	IRRI 174		Inbred					HB	
HB4208-03	IRRI 174		Inbred					HB	
IRRI 174*	IRRI 174								
HB4209-01	IR68		Inbred					HB	
HB4209-02	IR68		Inbred					HB	
HB4209-03	IR68		Inbred					HB	
IR68*	IR68								
HB4210-01	IR107041:36-1-1		Inbred					HB	
HB4210-02	IR107041:36-1-1		Inbred					HB	
HB4210-03	IR107041:36-1-1		Inbred					HB	
IR107041:36-1-1*	IR107041:36-1-1								
HB4211-01	IR09A220		Inbred					HB	
HB4211-02	IR09A220		Inbred					HB	
HB4211-03	IR09A220		Inbred					HB	
IR09A220*	IR09A220								
HB4212-01	IR08A176		Inbred					HB	
HB4212-02	IR08A176		Inbred					HB	
HB4212-03	IR08A176		Inbred					HB	
IR08A176*	IR08A176								
HB4214-01	IR11A306		Inbred					HB	
HB4214-02	IR11A306		Inbred					HB	
HB4214-03	IR11A306		Inbred					HB	
IR11A306*	IR11A306								
HB4215-01	IR12N240		Inbred					HB	
HB4215-02	IR12N240		Inbred					HB	
HB4215-03	IR12N240		Inbred					HB	
IR12N240*	IR12N240								
